﻿{
  "profiles": {
    "UserService.Storage": {
      "commandName": "Project",
      "dotnetRunMessages": "true",
      "launchBrowser": false,
      "applicationUrl": "http://localhost:9000",
      "environmentVariables": {
        "ASPNETCORE_ENVIRONMENT": "Development"
      }
    }
  }
}
